{
    "cordova-plugin-whitelist": {
        "source": {
            "type": "registry",
            "id": "cordova-plugin-whitelist@1"
        },
        "is_top_level": true,
        "variables": {}
    },
    "cordova-plugin-fullscreen": {
        "source": {
            "type": "registry",
            "id": "cordova-plugin-fullscreen"
        },
        "is_top_level": true,
        "variables": {}
    },
    "cordova-plugin-compat": {
        "source": {
            "type": "registry",
            "id": "cordova-plugin-compat"
        },
        "is_top_level": false,
        "variables": {}
    }
}